…
Lets query data on recipients of Student loan in the city of Turku

``` r
d_opintotuki <- get_data(data_id = d_id, 
                           sql = "WHERE etuus = 'Opintolainan valtiontakaus' AND
                            aikatyyppi = 'Vuosi' AND
                            kunta_nimi = 'Turku' AND
                            etuus = 'Opintolainan valtiontakaus' AND
                            oppilaitos_peruste = 'Viimeisin oppilaitos'
                           ")
d_opintotuki
```

    ## # A tibble: 1,630 × 15
    ##    aikatyyppi kuukausi_nro vuosikuukausi vuosi kunta_nro kunta_nimi ikaryhma    
    ##    <chr>             <dbl>         <dbl> <dbl> <chr>     <chr>      <chr>       
    ##  1 Vuosi                12        202312  2023 853       Turku      Tieto puutt…
    ##  2 Vuosi                12        202312  2023 853       Turku      Tieto puutt…
    ##  3 Vuosi                12        202312  2023 853       Turku      Tieto puutt…
    ##  4 Vuosi                12        202312  2023 853       Turku      Tieto puutt…
    ##  5 Vuosi                12        202312  2023 853       Turku      Tieto puutt…
    ##  6 Vuosi                12        202312  2023 853       Turku      55-         
    ##  7 Vuosi                12        202312  2023 853       Turku      55-         
    ##  8 Vuosi                12        202312  2023 853       Turku      55-         
    ##  9 Vuosi                12        202312  2023 853       Turku      55-         
    ## 10 Vuosi                12        202312  2023 853       Turku      55-         
    ## # ℹ 1,620 more rows
    ## # ℹ 8 more variables: sukupuoli <chr>, etuus <chr>, oppilaitos_peruste <chr>,
    ## #   oppilaitosaste <chr>, saaja_lkm <dbl>, saaja_laskenta_lkm <dbl>,
    ## #   maksettu_eur <dbl>, maksettu_laskenta_eur <dbl>
…
